<?xml version="1.0" encoding="UTF-8" standalone="no"?>
<!-- Created with Inkscape (http://www.inkscape.org/) -->

<svg
   xmlns:dc="http://purl.org/dc/elements/1.1/"
   xmlns:cc="http://creativecommons.org/ns#"
   xmlns:rdf="http://www.w3.org/1999/02/22-rdf-syntax-ns#"
   xmlns:svg="http://www.w3.org/2000/svg"
   xmlns="http://www.w3.org/2000/svg"
   xmlns:sodipodi="http://sodipodi.sourceforge.net/DTD/sodipodi-0.dtd"
   xmlns:inkscape="http://www.inkscape.org/namespaces/inkscape"
   width="800"
   height="800"
   viewBox="0 0 799.99999 799.99999"
   id="svg2"
   version="1.1"
   inkscape:version="0.91 r13725"
   sodipodi:docname="rorazoro.svg"
   inkscape:export-filename="C:\Users\Rora\Desktop\rorazoro.png"
   inkscape:export-xdpi="90"
   inkscape:export-ydpi="90">
  <defs
     id="defs4" />
  <sodipodi:namedview
     id="base"
     pagecolor="#ffffff"
     bordercolor="#666666"
     borderopacity="1.0"
     inkscape:pageopacity="1"
     inkscape:pageshadow="2"
     inkscape:zoom="0.7"
     inkscape:cx="465.15992"
     inkscape:cy="389.0318"
     inkscape:document-units="px"
     inkscape:current-layer="layer5"
     showgrid="false"
     inkscape:window-width="1600"
     inkscape:window-height="838"
     inkscape:window-x="1352"
     inkscape:window-y="-8"
     inkscape:window-maximized="1"
     showguides="true"
     units="px">
    <inkscape:grid
       type="xygrid"
       id="grid4206" />
  </sodipodi:namedview>
  <metadata
     id="metadata7">
    <rdf:RDF>
      <cc:Work
         rdf:about="">
        <dc:format>image/svg+xml</dc:format>
        <dc:type
           rdf:resource="http://purl.org/dc/dcmitype/StillImage" />
        <dc:title />
      </cc:Work>
    </rdf:RDF>
  </metadata>
  <g
     inkscape:groupmode="layer"
     id="layer5"
     inkscape:label="wolf 1"
     style="display:inline">
    <path
       style="fill:#666666;fill-opacity:1;fill-rule:evenodd;stroke:#ffffff;stroke-width:2.99657393px;stroke-linecap:butt;stroke-linejoin:miter;stroke-opacity:1"
       d="m 131.04081,618.3485 0,-517.61647 96.86389,86.26937 337.51022,0 98.37743,-84.7559 0,516.103 -115.02605,-21.18898 -90.80988,130.16087 -124.10692,0 -87.78286,-128.64736 z"
       id="path20500"
       inkscape:connector-curvature="0" />
    <path
       style="fill:#000000;fill-opacity:1;fill-rule:evenodd;stroke:#000000;stroke-width:2.99657393px;stroke-linecap:butt;stroke-linejoin:miter;stroke-opacity:1"
       d="m 261.20156,276.29783 107.45849,148.32286 -39.35089,151.34987 39.35089,60.53993 60.53986,-1.51351 39.35108,-62.05344 -42.37791,-145.29586 107.4583,-152.86334 130.16097,184.64681 0,-130.16087 -98.37743,-143.78235 -339.02373,0 -95.35038,149.83634 0,128.6474 z"
       id="path20502"
       inkscape:connector-curvature="0" />
    <path
       style="fill:#002d00;fill-opacity:1;fill-rule:evenodd;stroke:#666666;stroke-width:2.99657393px;stroke-linecap:butt;stroke-linejoin:miter;stroke-opacity:1"
       d="m 217.31013,361.05376 115.02605,66.59392 -93.83709,24.21598 z"
       id="path20504"
       inkscape:connector-curvature="0" />
    <path
       style="fill:#002d00;fill-opacity:1;fill-rule:evenodd;stroke:#666666;stroke-width:2.99657393px;stroke-linecap:butt;stroke-linejoin:miter;stroke-opacity:1"
       d="m 578.35845,358.62554 -115.02586,66.59389 93.8369,24.216 z"
       id="path20504-3"
       inkscape:connector-curvature="0" />
  </g>
</svg>
